…
## Example

This is a basic example which shows you how to solve a common problem:

``` r
library(bluelink)
temp <- readRDS(system.file("extdata/ocean_temp.rds", package = "bluelink", mustWork = TRUE))


files <- tidyr::unnest(temp, cols = "bands") |> dplyr::filter(zlevel == 1)

files 
#> # A tibble: 10,773 × 7
#>    fileurl                    dsn   ncurl date                zlevel     z  band
#>    <chr>                      <chr> <chr> <dttm>               <int> <dbl> <int>
#>  1 https://dapds00.nci.org.a… /vsi… http… 1993-01-01 12:00:00      1   2.5     1
#>  2 https://dapds00.nci.org.a… /vsi… http… 1993-01-02 12:00:00      1   2.5    52
#>  3 https://dapds00.nci.org.a… /vsi… http… 1993-01-03 12:00:00      1   2.5   103
#>  4 https://dapds00.nci.org.a… /vsi… http… 1993-01-04 12:00:00      1   2.5   154
#>  5 https://dapds00.nci.org.a… /vsi… http… 1993-01-05 12:00:00      1   2.5   205
#>  6 https://dapds00.nci.org.a… /vsi… http… 1993-01-06 12:00:00      1   2.5   256
#>  7 https://dapds00.nci.org.a… /vsi… http… 1993-01-07 12:00:00      1   2.5   307
#>  8 https://dapds00.nci.org.a… /vsi… http… 1993-01-08 12:00:00      1   2.5   358
#>  9 https://dapds00.nci.org.a… /vsi… http… 1993-01-09 12:00:00      1   2.5   409
#> 10 https://dapds00.nci.org.a… /vsi… http… 1993-01-10 12:00:00      1   2.5   460
#> # … with 10,763 more rows
```
…
